{
  "environmentData": [
    {
      "id": "dc-1",
      "type": "DC",
      "properties": {
        "szId": 10
      },
      "children": [
        {
          "id": "rack-1",
          "type": "RACK",
          "properties": {
            "szId": 20,
            "cTop": {
              "lastValue": {
                "value": -3000,
                "timestamp": 1455123528
              }
            },
            "cMid": {
              "lastValue": {
                "value": 62.2,
                "timestamp": 1455123528
              }
            },
            "cBot": {
              "lastValue": {
                "value": 62.2,
                "timestamp": 1455123528
              }
            },
            "hTop": {
              "lastValue": {
                "value": 72.2,
                "timestamp": 1455123528
              }
            },
            "hMid": {
              "lastValue": {
                "value": 72.2,
                "timestamp": 1455123528
              }
            },
            "hBot": {
              "lastValue": {
                "value": 72.2,
                "timestamp": 1455123528
              }
            },
            "ref": {
              "lastValue": {
                "value": 72.2,
                "timestamp": 1455123528
              }
            },
            "ra": {
              "lastValue": {
                "value": 72.2,
                "timestamp": 1455123528
              }
            },
            "rh": {
              "lastValue": {
                "value": 72.2,
                "timestamp": 1455123528
              }
            },
            "cTROfChange": {
              "lastValue": {
                "value": 72.2,
                "timestamp": 1455123528
              }
            }
          }
        }
      ]
    }
  ]
}