@startuml

interface ReadingsService {
	getFloorplanData() : List<FloorplanData>
}
ReadingsService --> FloorplanData

abstract class Entity {
	id : Integer
}

class FloorplanData extends Entity {
	rackReadings : List<RackReadings>
	crahReadings : List<CrahReadings>
	verticalTempReadings : List<VerticalTempReadings>
	genericTempReadings : List<GenericTempReadings>
	pressureReadings : List<PressureReadings>
}
FloorplanData o-- RackReadings
FloorplanData o-- CrahReadings
FloorplanData o-- VerticalTempReadings
FloorplanData o-- GenericTempReadings
FloorplanData o-- PressureReadings

class RackReadings extends Entity {
	cTop : Optional<Reading>
	cMid : Optional<Reading>
	cBot : Optional<Reading>
	hTop : Optional<Reading>
	hMid : Optional<Reading>
	hBot : Optional<Reading>
	ref : Optional<Reading>
	rh : Optional<Reading>
	ra : Optional<Reading>
	cTROfChange : Optional<Reading>
}
RackReadings o-- Reading

class CrahReadings extends Entity {
	supplyTemp : Optional<Reading>
	returnTemp : Optional<Reading>
	supplyDp : Optional<Reading>
	returnDp : Optional<Reading>
	alr : Optional<Reading>
}
CrahReadings o-- Reading

class VerticalTempReadings extends Entity {
	top : Optional<Reading>
	middle : Optional<Reading>
	bottom : Optional<Reading>
}
VerticalTempReadings o-- Reading

class GenericTempReadings extends Entity {
	temp : Optional<Reading>
}
GenericTempReadings o-- Reading

class PressureReadings extends Entity {
	pressure : Optional<Reading>
}
PressureReadings o-- Reading

class Reading {
	value : Double
	instant : Instant
}

@enduml