--------------  S C R I P T   V E R S I O N   I N F O   -----------------------
;
; Version 0.1      2007-11-06 Nechaev Andrey - test script 
;
---------------------- S C R I P T   H E A D E R ------------------------------
;
; Script: BNStack_TC03-Rev0.1.vts
;
; Purpose: To verify that the IUT will broadcast an I-Am-Router-To-Network 
; message listing all downstream networks when it receives a 
; Who-Is-Router-To-Network message with no specified network number 
;
----------------- S C R I P T   P A R A M E T E R S ---------------------------

INCLUDE "BNStack_params-Rev0.1.vts"

---------------------- S C R I P T   B O D Y ----------------------------------


SECTION Network tests

TEST TC03

SEND (
	NETWORK = NET_PORT
	DA = IUT_MAC
	SA = TD_MAC
	MESSAGE = Who-is-router-to-network
)

EXPECT (
	NETWORK = NET_PORT	
	DA = TD_MAC
	SA = IUT_MAC
	MESSAGE = I-am-router-to-network, 2
)
