--------------  S C R I P T   V E R S I O N   I N F O   -----------------------
;
; Version 0.1      2007-11-06 Nechaev Andrey - test script 
;
---------------------- S C R I P T   H E A D E R ------------------------------
;
; Script: BNStack_TC10-Rev0.1.vts
;
; Purpose: To verify that the IUT can execute ReadProperty service request when
; the requested object-identifier references a Device Object with an unknown 
; instance (4194303)
;
----------------- S C R I P T   P A R A M E T E R S ---------------------------

INCLUDE "BNStack_params-Rev0.1.vts"

GW_MAC = X'000000000001'
REMOTE_NET = 3
REMOTE_MAC = X'0123456789AB'
OBJECT_LIST_SIZE = 3

---------------------- S C R I P T   B O D Y ----------------------------------


SECTION Network tests

TEST TC09

SEND (
	NETWORK = NET_PORT
	DA = IUT_MAC
	SA = TD_MAC
	DNET = INITIAL_NET
	DADR = SYNNOD_MAC
	HOPCOUNT = 255
	SNET = REMOTE_NET
	SADR = REMOTE_MAC
	PDU = Confirmed-Request
	SERVICE = READPROPERTY
	SEGMSG = false
	SEGRESP = false
	MAXRESP = 1476
	INVOKEID = 1
	Object =  0, dev, 1
	Propertyidentifier = 1, Object_List 
)

EXPECT (
	NETWORK = NET_PORT	
	DA = TD_MAC
	SA = IUT_MAC
	DNET = REMOTE_NET
	DADR = REMOTE_MAC	
	SNET = INITIAL_NET
	SADR = SYNNOD_MAC
	PDU = COMPLEXACK
	INVOKEID = 1
	SERVICE = READPROPERTY
	Object = 0, dev , 1
	Property = 1, Object_List 
	OpenTag = 3
	AL = {Object-List}
	CloseTag = 3
)
