--------------  S C R I P T   V E R S I O N   I N F O   -----------------------
;
; Version 0.1      2007-11-06 Nechaev Andrey - test script 
;
---------------------- S C R I P T   H E A D E R ------------------------------
;
; Script: BNStack_TC05-Rev0.1.vts
;
; Purpose: To verify that the IUT does not respond if it receives a 
; Who-is-router-to-network message specifying a network number for a network 
; that is known to be reachable through the same port through which the 
; I-Am-Router-To-Network message was received 
;
----------------- S C R I P T   P A R A M E T E R S ---------------------------

INCLUDE "BNStack_params-Rev0.1.vts"

EXTERNAL_NET = 1

---------------------- S C R I P T   B O D Y ----------------------------------


SECTION Network tests

TEST TC05

SEND (
	NETWORK = NET_PORT
	DA = BROADCAST
	SA = TD_MAC
	MESSAGE = Who-is-router-to-network, EXTERNAL_NET
)

